{
  "development": {
    "username": "postgres",
    "password": "admin",
    "database": "DB_RPS_FAJAR",
    "host": "127.0.0.1",
    "dialect": "postgres"
  },
  "test": {
    "username": "postgres",
    "password": "admin",
    "database": "DB_RPS_FAJAR",
    "host": "127.0.0.1",
    "dialect": "postgres"
  },
  "production": {
    "username": "postgres",
    "password": "admin",
    "database": "DB_RPS_FAJAR",
    "host": "127.0.0.1",
    "dialect": "postgres"
  }
}
